Execution recorded at 2019-07-01 16:03:53.219154;1-daniel-5c:3:39:39:fb:88;21.535964727401733
Execution recorded at 2019-07-01 16:08:48.340365;1-daniel-5c:3:39:39:fb:88;21.50542378425598
Execution recorded at 2019-07-01 16:11:19.641443;1-daniel-5c:3:39:39:fb:88;21.502699375152588
Execution recorded at 2019-07-01 16:13:41.937182;1-daniel-5c:3:39:39:fb:88;21.627031803131104
Execution recorded at 2019-07-01 19:10:48.865513;1-daniel-5c:3:39:39:fb:88;21.55925464630127
Execution recorded at 2019-07-01 19:10:48.877448;1-daniel-5c:3:39:39:fb:88;21.56819772720337
Execution recorded at 2019-07-01 19:11:35.741418;1-daniel-5c:3:39:39:fb:88;21.613942623138428
Execution recorded at 2019-07-01 19:11:35.749396;1-daniel-5c:3:39:39:fb:88;21.616935968399048
Execution recorded at 2019-07-01 19:13:46.373262;1-daniel-5c:3:39:39:fb:88;21.587406635284424
Execution recorded at 2019-07-01 19:16:02.730698;1-daniel-5c:3:39:39:fb:88;21.504934787750244
Execution recorded at 2019-07-01 19:17:06.006028;1-daniel-5c:3:39:39:fb:88;21.501521587371826
Execution recorded at 2019-07-01 19:19:48.480617;1-daniel-5c:3:39:39:fb:88;21.598605155944824
Execution recorded at 2019-07-01 19:19:48.480617;1-daniel-5c:3:39:39:fb:88;21.598605155944824
Execution recorded at 2019-07-01 19:20:58.334734;1-daniel-5c:3:39:39:fb:88;21.61001682281494
Execution recorded at 2019-07-01 19:20:58.343724;1-daniel-5c:3:39:39:fb:88;21.613022327423096
Execution recorded at 2019-07-01 19:26:00.103888;1-daniel-5c:3:39:39:fb:88;21.555126905441284
Execution recorded at 2019-07-01 19:27:37.740506;1-daniel-5c:3:39:39:fb:88;21.504331827163696
Execution recorded at 2019-07-01 19:28:39.486007;1-daniel-5c:3:39:39:fb:88;21.608056783676147
Execution recorded at 2019-07-01 19:29:43.073152;1-daniel-5c:3:39:39:fb:88;21.540905237197876
Execution recorded at 2019-07-02 15:23:24.932930;1-daniel-5c:3:39:39:fb:88;0.02792215347290039
Execution recorded at 2019-07-02 15:24:57.257057;0x0000000007ecacd3-Xiaomi Yeelight v2-;15.80670976638794
Execution recorded at 2019-07-02 15:25:23.992750;shelly10x001-Shelly1-;18.931549072265625
Execution recorded at 2019-07-02 15:26:55.075709;0x0000000007ecacd3-Xiaomi Yeelight v2-;0.01894855499267578
Execution recorded at 2019-07-02 15:27:03.164006;shelly10x001-Shelly1-;0.01894974708557129
Execution recorded at 2019-07-02 15:27:54.108427;1-daniel-5c:3:39:39:fb:88;14.969512939453125
Execution recorded at 2019-07-02 15:27:54.111421;1-daniel-5c:3:39:39:fb:88;14.950502634048462
Execution recorded at 2019-07-02 15:27:54.111421;1-daniel-5c:3:39:39:fb:88;15.043613195419312
Execution recorded at 2019-07-02 15:27:54.111421;1-daniel-5c:3:39:39:fb:88;15.05458378791809
Execution recorded at 2019-07-02 15:28:18.016570;1-claudia-48:2c:a0:61:98:20;15.019156694412231
Execution recorded at 2019-07-02 15:28:18.016570;1-claudia-48:2c:a0:61:98:20;15.050074577331543
Execution recorded at 2019-07-02 15:28:18.021556;1-claudia-48:2c:a0:61:98:20;14.954330205917358
Execution recorded at 2019-07-02 15:30:17.229994;0x0000000007ecacd3-Xiaomi Yeelight v2-;0.02293705940246582
Execution recorded at 2019-07-02 15:30:23.446577;shelly10x001-Shelly1-;0.01795220375061035
Execution recorded at 2019-07-02 15:31:04.998081;1-daniel-5c:3:39:39:fb:88;0.9015886783599854
Execution recorded at 2019-07-02 15:31:27.672386;1-claudia-48:2c:a0:61:98:20;0.8776593208312988
Execution recorded at 2019-07-02 15:31:52.319515;1-paul-c:cb:85:e9:9d:67;0.7985272407531738
Execution recorded at 2019-07-02 15:41:15.724839;shelly10x001-Shelly1-;0.016918420791625977
Execution recorded at 2019-07-02 15:41:19.773615;0x0000000007ecacd3-Xiaomi Yeelight v2-;0.016954660415649414
Execution recorded at 2019-07-02 15:41:42.590820;1-daniel-5c:3:39:39:fb:88;6.429427146911621
Execution recorded at 2019-07-02 15:42:06.976672;1-daniel-5c:3:39:39:fb:88;4.765896797180176
Execution recorded at 2019-07-03 09:09:37.151106;1-daniel-5c:3:39:39:fb:88;0.031030893325805664
Execution recorded at 2019-07-03 09:10:50.957444;1-daniel-5c:3:39:39:fb:88;0.031241893768310547
Execution recorded at 2019-07-03 09:10:50.973066;1-daniel-5c:3:39:39:fb:88;0.015622138977050781
Execution recorded at 2019-07-03 09:11:18.194893;0x0000000007ecacd3-Xiaomi Yeelight v2-;8.780425548553467
Execution recorded at 2019-07-03 09:11:49.407669;0x0000000007ecacd3-Xiaomi Yeelight v2-;0.01562047004699707
Execution recorded at 2019-07-03 09:11:53.378654;shelly10x001-Shelly1-;0.01565265655517578
Execution recorded at 2019-07-03 09:13:29.506258;0x0000000007ecacd3-Xiaomi Yeelight v2-;0.01565265655517578
Execution recorded at 2019-07-03 09:13:31.896332;shelly10x001-Shelly1-;0.015659570693969727
Execution recorded at 2019-07-03 09:14:13.278920;1-daniel-5c:3:39:39:fb:88;7.965716361999512
Execution recorded at 2019-07-03 09:15:14.793449;1-claudia-48:2c:a0:61:98:20;6.814425230026245
Execution recorded at 2019-07-03 09:17:03.022073;1-claudia-48:2c:a0:61:98:20;4.28051233291626
Execution recorded at 2019-07-03 09:25:25.033829;0x0000000007ecacd3-Xiaomi Yeelight v2-;0.016957521438598633
Execution recorded at 2019-07-03 09:25:31.576347;shelly10x001-Shelly1-;0.012966394424438477
Execution recorded at 2019-07-03 09:26:52.329597;1-daniel-5c:3:39:39:fb:88;1.0165951251983643
Execution recorded at 2019-07-03 09:27:12.134638;1-claudia-48:2c:a0:61:98:20;0.7649555206298828
Execution recorded at 2019-07-03 09:27:12.137633;1-claudia-48:2c:a0:61:98:20;0.7579760551452637
Execution recorded at 2019-07-03 09:27:35.691396;1-paul-c:cb:85:e9:9d:67;7.065850496292114
Execution recorded at 2019-07-03 09:27:35.691396;1-paul-c:cb:85:e9:9d:67;7.074827671051025
Execution recorded at 2019-07-03 09:28:03.463164;1-daniel-5c:3:39:39:fb:88;6.012415170669556
Execution recorded at 2019-07-03 09:28:35.144464;1-daniel-5c:3:39:39:fb:88;6.983999013900757
Execution recorded at 2019-07-22 12:59:30.094243;1-daniel-5c:3:39:39:fb:88;0.020917415618896484
Execution recorded at 2019-07-22 13:05:41.746690;1-daniel-5c:3:39:39:fb:88;0.015989303588867188
Execution recorded at 2019-07-22 13:06:35.346231;shelly10x001-Shelly1-;0.016268253326416016
Execution recorded at 2019-07-22 13:06:46.865249;0x0000000007ecacd3-Xiaomi Yeelight v2-;0.019978046417236328
Execution recorded at 2019-07-22 13:10:04.396356;1-daniel-5c:3:39:39:fb:88;42.885215044021606
Execution recorded at 2019-07-22 13:10:06.792708;1-daniel-5c:3:39:39:fb:88;42.59802603721619
Execution recorded at 2019-07-22 13:11:07.532538;2-claudia-5c:3:39:39:fb:88;42.551188945770264
Execution recorded at 2019-07-22 13:12:34.108912;3-paul-5c:3:39:39:fb:88;42.60797715187073
Execution recorded at 2019-07-22 14:18:57.161499;shelly10x001-Shelly1-;0.017922639846801758
Execution recorded at 2019-07-22 14:19:12.156408;shelly10x001-Shelly1-;0.018951416015625
Execution recorded at 2019-07-22 14:19:25.985431;0x0000000007ecacd3-Xiaomi Yeelight v2-;0.01795220375061035
Execution recorded at 2019-07-22 14:21:56.388917;3-paul-5c:3:39:39:fb:88;42.54042339324951
Execution recorded at 2019-07-22 14:23:12.386437;2-claudia-5c:3:39:39:fb:88;42.50706458091736
Execution recorded at 2019-07-22 14:24:18.682094;1-daniel-5c:3:39:39:fb:88;42.52412700653076
Execution recorded at 2019-07-23 09:31:30.362180;0x0000000007ecacd3-Xiaomi Yeelight v2-;38.7520272731781
Execution recorded at 2019-07-23 09:31:56.653117;0x0000000007ecacd3-Xiaomi Yeelight v2-;0.014994621276855469
Execution recorded at 2019-07-23 09:32:08.878667;0x0000000007ecacd3-Xiaomi Yeelight v2-;0.01100778579711914
Execution recorded at 2019-07-23 09:32:16.951136;0x0000000007ecacd3-Xiaomi Yeelight v2-;0.010970830917358398
Execution recorded at 2019-07-23 09:34:17.711311;1-daniel-5c:3:39:39:fb:88;21.453289270401
